@startuml

skinparam state {
  StartColor MediumBlue
  EndColor Red
  BackgroundColor Peru
  BackgroundColor<<Warning>> Olive
  BorderColor Gray
  FontName Impact
}

[*] --> GameWithPlayers : Start Game
GameWithPlayers --> InconsistentState : SomeOneLeft
InconsistentState --> GameWithPlayers : Players > 1
InconsistentState --> GameWithSinglePlayer : Players == 1
GameWithSinglePlayer --> PlayerWinsTheGame : Check winners
state GameWithPlayers {
}

state InconsistentState{

}

InconsistentState : players -= 1

state GameWithSinglePlayer {

}

state PlayerWinsTheGame {

}
@enduml