@startuml
actor GameControllerActor order 2
actor GameActor order 3
actor ControlGame order 1
actor GuiActor order 4

title Clients Presentation

box "Server" #LightBlue
	participant ControlGame
	participant GameControllerActor
end box

box "Client" #LightGreen
	participant GameActor
	participant GuiActor
end box

hnote over ControlGame : GameInitialization

  == CLIENTS PRESENTATION ==


GuiActor --> GameActor : ClientPresentation(ActorRef, Name)
GameActor --> GameControllerActor : ClientPresentation(ActorRef, Name)
GameControllerActor -> ControlGame : SaveClients(ActorRef, Name)
activate ControlGame

note left
ControlGame saves
actorRef in a list and waits
until list size equals to
clients expected.
Once list size is
equals to expected clients
end note

ControlGame -> GameControllerActor : StartGame
deactivate ControlGame
GameControllerActor --> GameActor : StartGame()
GameActor --> GuiActor : StartGame

@enduml