@startuml
actor GameControllerActor order 2
actor GameActor order 3
actor ControlGame order 1
actor GuiActor order 4
entity ControlGUI order 5

box "Server" #LightBlue
	participant ControlGame
	participant GameControllerActor
end box

box "Client" #LightGreen
	participant GameActor
	participant GuiActor
	participant ControlGUI
end box

hnote over ControlGame : GameInitialization
hnote over ControlGame : ActorPresentation

== START GAME ==

ControlGame -> GameControllerActor :StartGame
GameControllerActor --> GameActor : StartGameMessage
GameActor --> GuiActor : StartGameMessage
GuiActor -> ControlGUI: gameIsStarted
activate ControlGUI
ControlGame --\\ GameControllerActor : WizardMoment
GameControllerActor --> GameActor: WizardMomentMessage(WizardMoment)
GameActor --> GuiActor : WizardMomentMessage(WizardMoment)
GuiActor -\\ ControlGUI : WizardMoment
ControlGUI -> GuiActor : getGameBoard
GuiActor ->> GameActor : GetGameBoarMessage
GameActor ->> GameControllerActor : GetGameBoardMessage
GameControllerActor -> ControlGame : getGameBoard
ControlGame -> GameControllerActor : gameboard
GameControllerActor --> GameActor : GetGameBoardMessage(gameboard)
hnote over ControlGUI : GUI Updating
GameActor --> GuiActor : GetGameBoardMessage(gameboard)
GuiActor -> ControlGUI : gameboard

deactivate ControlGUI


== START ROUND ==

group Turn (Until all wizards have played)
    alt It's this wizard's moment
        ControlGUI -> GuiActor : SpellToCast
        activate ControlGUI
        GuiActor ->> GameActor : SpellToCastMessage(Wizard, spell)
        GameActor ->> GameControllerActor : SpellToCastMessage(Wizard, spell)

        GameControllerActor -> ControlGame : SpellToCast(Wizard, spell)
        activate ControlGame
        ControlGame -> GameControllerActor : SpellCasted(isSucceed)
        deactivate ControlGame
        GameControllerActor --> GameActor : SpellCastedMessage(isSucceed)
        GameActor --> GuiActor: SpellCastedMessage(isSucceed)
        GuiActor -> ControlGUI : SpellCasted(isSucceed)
        ControlGUI -> GuiActor : getGameBoard
        GuiActor ->> GameActor : GetGameBoarMessage
        GameActor ->> GameControllerActor : GetGameBoardMessage
        GameControllerActor -> ControlGame : getGameBoard
        ControlGame -> GameControllerActor : gameboard
        hnote over ControlGUI : GUI Updating
        GameControllerActor --> GameActor : GetGameBoardMessage(gameboard)
        GameActor --> GuiActor : GetGameBoardMessage(gameboard)
        GuiActor -> ControlGUI : gameboard
        deactivate ControlGUI

    else It's other wizard's moment
            ControlGame -> GameControllerActor : SpellCasted(isSucceed)
            GameControllerActor --> GameActor : SpellCastedMessage(isSucceed)
            GameActor --> GuiActor: SpellCastedMessage(isSucceed)
            GuiActor -> ControlGUI : SpellCasted(isSucceed)
            activate ControlGUI
            ControlGUI -> GuiActor : getGameBoard
            GuiActor ->> GameActor : GetGameBoarMessage
            GameActor ->> GameControllerActor : GetGameBoardMessage
            GameControllerActor -> ControlGame : getGameBoard
            ControlGame -> GameControllerActor : gameboard
            GameControllerActor --> GameActor : GetGameBoardMessage(gameboard)
            hnote over ControlGUI : GUI Updating
            GameActor --> GuiActor : GetGameBoardMessage(gameboard)
            GuiActor -> ControlGUI : gameboard
            deactivate ControlGUI
    end
end

== END ROUND ==
hnote over ControlGame : Check Someone has won
ControlGame -> GameControllerActor : wizardHasWon(Wizard)
GameControllerActor --> GameActor : wizardHasWonMessage(Wizard)
GameActor --> GuiActor: WizardHasWonMessage(Wizard)
GuiActor -> ControlGUI : wizardHasWon(Wizard)
@enduml