@startuml
actor Owner order 2
actor LobbyActor order 1
actor OtherPlayers order 3

title Destroying the lobby
box "server" #lightgreen
    participant LobbyActor
end box

box "client" #lightblue
    participant Owner
    participant OtherPlayers
end box
hnote over Owner #red: Just Owner can \nsend a destroy message

Owner --> LobbyActor : DestroyLobby()
hnote over LobbyActor #aqua: Lobby must check\nsender. It has to\nbe owner
LobbyActor --> OtherPlayers : LobbyDestroyed()
LobbyActor --> LobbyActor : PoisonPill()
destroy LobbyActor

@enduml