@startuml
skinparam backgroundColor LightYellow
skinparam state {
  StartColor MediumBlue
  EndColor Red
  BackgroundColor Peru
  BackgroundColor<<Warning>> Olive
  BorderColor Gray
  FontName Impact
}
scale 550 width
[*] --> Empty : Created by MasterLobby
Empty --> Set: Receive setting
Set --> Waiting
Waiting --> Waiting : Player joins Lobby
Waiting --> StartGame : All players joined lobby
Waiting --> StartGame : Owner starts game
Waiting --> LobbyDestroyed : Owner destroys Lobby
LobbyDestroyed --> [*] : All players warns
StartGame --> [*] : Lobby inserted in list
}
@enduml