@startuml
actor Player order 1
actor APIServer order 2
actor DiscoveryActor order 3
actor MasterLobbyServer order 4
actor LobbyActor order 5

box "Client" #LightGreen
	participant Player
end box

box "Server" #LightBlue
	participant DiscoveryActor
	participant MasterLobbyServer
	participant LobbyActor
	participant APIServer
end box

Player ->> APIServer : GET /discovery?
APIServer --> Player : OK ActorRef <<DiscoveryActor>>
Player ->> DiscoveryActor: ClientPresentation(nameOfPlayer, actorRef)
DiscoveryActor --> Player : ACK
Player ->> DiscoveryActor : WhoIsMasterLobby()
DiscoveryActor --> Player : MasterLobbyIs(ActroRef)

Player ->> MasterLobbyServer : CreateThisLobby(settings)
activate MasterLobbyServer
create LobbyActor
MasterLobbyServer ->> LobbyActor : new
LobbyActor --> MasterLobbyServer : <<ACK>> IAmAlive()
MasterLobbyServer ->> LobbyActor : Setting(setting)
LobbyActor --> MasterLobbyServer : <<ACK>> IAmReady()
LobbyActor --> Player : Hello(owner, players)
MasterLobbyServer --> DiscoveryActor : InviteThisClient(lobby, client)
deactivate MasterLobbyServer
activate DiscoveryActor
DiscoveryActor --> Player : GameInvitation(lobby, ownerName)
deactivate DiscoveryActor
activate Player
alt Player Accept
  Player --> LobbyActor : Subscribe(playerName)
end
deactivate Player

== STARTING GAME ==

LobbyActor --> Player : WaitingState()
LobbyActor --> MasterLobbyServer : SubscribeLobby(GameTypes)
@enduml