@startuml

class Lobby
class Authentication
class ChooseModality
class InitialFrame
class LeaderBoard
class Rules
class Game

class CardTooltip
class InvitationFragment
class MyInfoFragment
class RoundEndFragment
class SecretCardFragment
class SocialFragment
class SpellCastingOutCome
class WizardFragment
class ViewUtility << (U,#e21818) Utility >> {
    -cardsPath
    -secretCardImagePath
    -facesPath
    -listOfFaces
    + getRandomFace()
    +cardPair(id: Int)
    +intToCardImageMapper(id: Int)
    + intToCardUrlMapper(id: Int)
}

Game *-- CardTooltip
Game "0" *-- "4" SecretCardFragment
Game "2" *-- "5" WizardFragment
WizardFragment *-right- ViewUtility
Game *-right- ViewUtility
ViewUtility --* SpellCastingOutCome

InitialFrame .right. ChooseModality
InitialFrame .up. LeaderBoard
InitialFrame .up. Rules
InitialFrame .down. Authentication
Authentication .up.> MyInfoFragment
Authentication .down.> SocialFragment
InitialFrame "0" *-left- "1" MyInfoFragment
InitialFrame "0" *-right- "1" SocialFragment
ChooseModality ..> Lobby
Lobby ..> Game
Game .right.> SpellCastingOutCome
Game .left.> RoundEndFragment

'TODO'
@enduml